"name","type","active","salt","calories"
"sardinhas assadas","fish",true,2,250
"rodovalho grelhado","fish",true,2,230
"lombo de boi","meat",true,2,375
"secretos de porco","meat",true,2,475
"soilent beef","vegie",false,1,140
"caril de feijão vermelho","vegie",true,2,10